Project 1: Exploratory Data Analysis
…
Above, it can be seen that there are 182 countries in “pop” that do not appear in “covid,” so these were dropped when the datasets were joined. There are also apparently two countries in “covid” that do not appear in “pop” - one is North Macedonia, and the other is blank because a country was not added for cases whose province was listed as Taiwan. To fix this for the purpose of this project, I used mutate to set “Taiwan” as the country for observations where the province was Taiwan and changed North Macedonia to Macedonia. There still appeared to be some entries where a country was not listed, so I decided to exclude those from my analysis.

Wrangling and Tidying

Here, I explore the “full” dataset by generating various summary statistics. I include a short explanation of the code before each chunk of code, but will discuss all the results in detail at the end of this section.

First, I cleaned up the data and counted the number of cases of each sex in each country, then arranged by descending number of male and female cases. I also used pivot_wider here to rearrange the data so that instead of having two rows for each country (one for each sex), I now have one row for each country with two columns that show the count for each sex.

full <- full %>% mutate(sex=ifelse(sex=="Female","female",sex), sex=ifelse(sex=="Male","male",sex),
                        sex=ifelse(sex!="female" & sex!="male",NA,sex))
full %>% group_by(country,sex) %>% filter(sex!="NA") %>% summarize(n=n())

## # A tibble: 44 x 3
## # Groups:   country [27]
##    country     sex        n
##    <chr>       <chr>  <int>
##  1 Afghanistan male       1
##  2 Australia   female     6
##  3 Australia   male       9
##  4 Cambodia    male       1
##  5 Canada      female     6
##  6 Canada      male       4
##  7 China       female   380
##  8 China       male     455
##  9 Ecuador     female     1
## 10 Finland     female     2
## # ... with 34 more rows

full %>% group_by(country,sex) %>% filter(sex!="NA") %>% summarize(n=n()) %>% pivot_wider(names_from="sex",values_from="n") %>% arrange(desc(male),desc(female))

## # A tibble: 27 x 3
## # Groups:   country [27]
##    country      male female
##    <chr>       <int>  <int>
##  1 China         455    380
##  2 Japan         110     57
##  3 Italy          13      8
##  4 South Korea    13      8
##  5 Germany        12      3
##  6 Taiwan         11     11
##  7 Australia       9      6
##  8 Thailand        7      7
##  9 France          7      4
## 10 Malaysia        7      4
## # ... with 17 more rows
…
